{
    "using": [
	"GLib",
	"GObject",
	"Mkit"
    ],
    "include": [
	"mk-gi-transfer.h",
	"mk-gi-direction.h",
	"mk-gi-scope.h",
	"mk-gi-when.h"
    ],
    "name": "Mkit",
    "identifier": "Mk",
    "symbol": "mk",
    "macro": "MK",
    "module": "gi",
    "version": "1.0",
    "header": "mk-gi.h",
    "interfaces": [
	{
	    "name": "Gi-Named",
	    "fields": {
		"type": "String",
		"name": "name"
	    }
	},
	{
	    "name": "Gi-Versioned",
	    "fields": {
		"type": "String",
		"name": "version"
	    }
	},
	{
	    "name": "Gi-Skipped",
	    "fields": {
		"type": "bool",
		"name": "skip"
	    }
	},
	{
	    "name": "Gi-Documentable",
	    "fields": [
		{
		    "type": "GiDoc",
		    "name": "doc"
		},
		{
		    "type": "GiDocVersion",
		    "name": "doc-version"
		},
		{
		    "type": "GiDoc",
		    "name": "doc-deprecated"
		}
	    ]
	},
	{
	    "name": "Gi-Attributed",
	    "fields": [
		{
		    "type": "Array",
		    "element": "GiAttribute",
		    "name": "attributes",
		    "tag": "attribute"
		}
	    ]
	},
	{
	    "name": "Gi-Objective",
	    "fields": [
		{
		    "type": "String",
		    "name": "c-type",
		    "tag": "c:type"
		},
		{
		    "type": "String",
		    "name": "c-symbol-prefix",
		    "tag": "c:symbol-prefix"
		},
		{
		    "type": "String",
		    "name": "ref-func",
		    "tag": "glib:ref-func"
		},
		{
		    "type": "String",
		    "name": "unref-func",
		    "tag": "glib:unref-func"
		},
		{
		    "type": "Array",
		    "element": "GiMethod",
		    "name": "methods",
		    "tag": "method"
		},
		{
		    "type": "Array",
		    "element": "GiFunction",
		    "name": "functions",
		    "tag": "function"
		}
	    ]
	},
	{
	    "name": "Gi-Typed",
	    "fields": [
		{
		    "type": "String",
		    "name": "type-name",
		    "tag": "glib:type-name"
		},
		{
		    "type": "String",
		    "name": "get-type-func",
		    "tag": "glib:get-type"
		},
		{
		    "type": "String",
		    "name": "type-struct",
		    "tag": "glib:type-struct"
		},
		{
		    "type": "String",
		    "name": "set-value-func",
		    "tag": "glib:set-value-func"
		},
		{
		    "type": "String",
		    "name": "get-value-func",
		    "tag": "glib:get-value-func"
		},
		{
		    "type": "Array",
		    "element": "GiSignal",
		    "name": "signals",
		    "tag": "glib:signal"
		}
	    ]
	},
	{
	    "name": "Gi-Storage",
	    "fields": [
		{
		    "type": "bool",
		    "name": "disguised"
		},
		{
		    "type": "Array",
		    "element": "GiItem",
		    "name": "items",
		    "classes": {
			"field": "GiField",
			"record": "GiRecord",
			"union": "GiUnion"
		    }
		},
		{
		    "type": "Array",
		    "element": "GiConstructor",
		    "name": "constructors",
		    "tag": "constructor"
		}
	    ]
	}
    ],
    "classes": [
	{
	    "name": "Gi-Item",
	    "implements": [
		"GiDocumentable",
		"GiNamed",
		"GiVersioned"
	    ],
	    "fields": [
		{
		    "type": "bool",
		    "name": "introspectable"
		},
		{
		    "type": "GiSourcePosition",
		    "name": "source-position"
		},
		{
		    "type": "bool",
		    "name": "deprecated"
		},
		{
		    "type": "String",
		    "name": "deprecated-version"
		}
	    ]
	},
	{
	    "name": "Gi-Repository",
	    "implements": [
		"GiDocumentable",
		"GiVersioned"
	    ],
	    "fields": [
		{
		    "type": "String",
		    "name": "xmlns"
		},
		{
		    "type": "String",
		    "name": "xmlns-c"
		},
		{
		    "type": "String",
		    "name": "xmlns-glib"
		},
		{
		    "type": "GiPackage",
		    "name": "package"
		},
		{
		    "type": "Array",
		    "element": "GiInclude",
		    "name": "include"
		},
		{
		    "type": "GiCInclude",
		    "name": "c-include",
		    "tag": "c:include"
		},
		{
		    "type": "GiNamespace",
		    "name": "namespace"
		}
	    ]
	},
	{
	    "name": "Gi-Alias",
	    "extends": "GiItem",
	    "fields": [
		{
		    "type": "GiType",
		    "name": "type"
		},
		{
		    "type": "String",
		    "name": "c-type",
		    "tag": "c:type"
		}
	    ]
	},
	{
	    "name": "Gi-Callable",
	    "extends": "GiItem",
	    "fields": [
		{
		    "type": "bool",
		    "name": "throws"
		},
		{
		    "type": "String",
		    "name": "c-type",
		    "tag": "c:type"
		},
		{
		    "type": "GiParameters",
		    "name": "parameters"
		},
		{
		    "type": "GiReturnValue",
		    "name": "return-value"
		}
	    ]
	},
	{
	    "name": "Gi-Function-Macro",
	    "extends": "GiCallable",
	    "fields": [
		{
		    "type": "String",
		    "name": "c-identifier",
		    "tag": "c:identifier"
		}
	    ]
	},
	{
	    "name": "Gi-Namespace",
	    "implements": [
		"GiNamed",
		"GiVersioned"
	    ],
	    "fields": [
		{
		    "type": "String",
		    "name": "shared-library"
		},
		{
		    "type": "String",
		    "name": "identifier-prefix",
		    "tag": "c:identifier-prefixes"
		},
		{
		    "type": "String",
		    "name": "symbol-prefix",
		    "tag": "c:symbol-prefixes"
		},
		{
		    "type": "Array",
		    "element": "GiAlias",
		    "name": "aliases",
		    "tag": "alias"
		},
		{
		    "type": "Array",
		    "element": "GiFunctionMacro",
		    "name": "function-macros",
		    "tag": "function-macro"
		},
		{
		    "type": "Array",
		    "element": "GiConstant",
		    "name": "constants",
		    "tag": "constant"
		},
		{
		    "type": "Array",
		    "element": "GiBoxed",
		    "name": "boxed",
		    "tag": "glib:boxed"
		},
		{
		    "type": "Array",
		    "element": "GiRecord",
		    "name": "records",
		    "tag": "record"
		},
		{
		    "type": "Array",
		    "element": "GiUnion",
		    "name": "unions",
		    "tag": "union"
		},
		{
		    "type": "Array",
		    "element": "GiInterface",
		    "name": "interfaces",
		    "tag": "interface"
		},
		{
		    "type": "Array",
		    "element": "GiClass",
		    "name": "classes",
		    "tag": "class"
		},
		{
		    "type": "Array",
		    "element": "GiBitfield",
		    "name": "bitfields",
		    "tag": "bitfield"
		},
		{
		    "type": "Array",
		    "element": "GiEnumeration",
		    "name": "enumerations",
		    "tag": "enumeration"
		},
		{
		    "type": "Array",
		    "element": "GiCallback",
		    "name": "callbacks",
		    "tag": "callback"
		},
		{
		    "type": "Array",
		    "element": "GiFunction",
		    "name": "functions",
		    "tag": "function"
		},
		{
		    "type": "Array",
		    "element": "GiDocSection",
		    "name": "docsections",
		    "tag": "docsection"
		}
	    ]
	},
	{
	    "name": "Gi-Doc",
	    "fields": [
		{
		    "type": "String",
		    "name": "xml-space",
		    "tag": "xml:space"
		},
		{
		    "type": "String",
		    "name": "filename"
		},
		{
		    "type": "uint32",
		    "name": "line"
		}
	    ]
	},
	{
	    "name": "Gi-Doc-Section",
	    "implements": [
		"GiDocumentable",
		"GiNamed"
	    ]
	},
	{
	    "name": "Gi-Doc-Version",
	    "fields": [
		{
		    "type": "String",
		    "name": "xml-space",
		    "tag": "xml:space"
		}
	    ]
	},
	{
	    "name": "Gi-Source-Position",
	    "fields": [
		{
		    "type": "String",
		    "name": "filename"
		},
		{
		    "type": "uint32",
		    "name": "line"
		}
	    ]
	},
	{
	    "name": "Gi-Type",
	    "implements": [
		"GiNamed"
	    ],
	    "fields": [
		{
		    "type": "Array",
		    "element": "GiType",
		    "name": "types",
		    "tag": "type"
		},
		{
		    "type": "String",
		    "name": "c-type",
		    "tag": "c:type"
		}
	    ]
	},
	{
	    "name": "Gi-Parameters",
	    "fields": [
		{
		    "type": "GiParameter",
		    "name": "instance-parameter"
		},
		{
		    "type": "Array",
		    "element": "GiParameter",
		    "name": "parameters",
		    "tag": "parameter"
		}
	    ]
	},
	{
	    "name": "Gi-Parameter",
	    "extends": "GiCallable",
	    "fields": [
		{
		    "type": "bool",
		    "name": "allow-none"
		},
		{
		    "type": "bool",
		    "name": "caller-allocates"
		},
		{
		    "type": "bool",
		    "name": "nullable"
		},
		{
		    "type": "bool",
		    "name": "optional"
		},
		{
		    "type": "uint32",
		    "name": "closure"
		},
		{
		    "type": "uint32",
		    "name": "destroy"
		},
		{
		    "type": "GiTransfer",
		    "name": "transfer",
		    "tag": "transfer-ownership"
		},
		{
		    "type": "GiDirection",
		    "name": "direction"
		},
		{
		    "type": "GiScope",
		    "name": "scope"
		},
		{
		    "type": "GiVarargs",
		    "name": "varargs"
		},
		{
		    "type": "Object",
		    "name": "type",
		    "classes": {
			"array": "GiArray",
			"type": "GiType"
		    }
		}
	    ]
	},
	{
	    "name": "Gi-Constant",
	    "extends": "GiItem",
	    "fields": [
		{
		    "type": "GiType",
		    "name": "type"
		},
		{
		    "type": "String",
		    "name": "value"
		},
		{
		    "type": "String",
		    "name": "c-type",
		    "tag": "c:type"
		}
	    ]
	},
	{
	    "name": "Gi-Interface",
	    "extends": "GiItem",
	    "implements": [
		"GiObjective",
		"GiTyped"
	    ],
	    "fields": [
		{
		    "type": "Array",
		    "element": "GiVirtualMethod",
		    "name": "virtual-methods",
		    "tag": "virtual-method"
		},
		{
		    "type": "Array",
		    "element": "GiProperty",
		    "name": "properties",
		    "tag": "property"
		},
		{
		    "type": "Array",
		    "element": "GiPrerequisite",
		    "name": "prerequisite"
		}
	    ]
	},
	{
	    "name": "Gi-Boxed",
	    "extends": "GiItem",
	    "implements": [
		"GiObjective",
		"GiTyped"
	    ],
	    "fields": [
		{
		    "type": "String",
		    "name": "name",
		    "tag": "glib:name"
		}
	    ]
	},
	{
	    "name": "Gi-Record",
	    "extends": "GiItem",
	    "implements": [
		"GiStorage",
		"GiObjective",
		"GiTyped"
	    ],
	    "fields": [
		{
		    "type": "String",
		    "name": "class-struct-for",
		    "tag": "glib:is-gtype-struct-for"
		}
	    ]
	},
	{
	    "name": "Gi-Union",
	    "extends": "GiItem",
	    "implements": [
		"GiStorage",
		"GiObjective",
		"GiTyped"
	    ]
	},
	{
	    "name": "Gi-Class",
	    "extends": "GiInterface",
	    "implements": "GiStorage",
	    "fields": [
		{
		    "type": "String",
		    "name": "parent"
		},
		{
		    "type": "bool",
		    "name": "abstract"
		},
		{
		    "type": "bool",
		    "name": "fundamental",
		    "tag": "glib:fundamental"
		},
		{
		    "type": "Array",
		    "element": "GiImplements",
		    "name": "implements"
		}
	    ]
	},
	{
	    "name": "Gi-Implements",
	    "fields": [
		{
		    "type": "String",
		    "name": "name"
		}
	    ]
	},
	{
	    "name": "Gi-Signal",
	    "extends": "GiCallable",
	    "fields": [
		{
		    "type": "GiWhen",
		    "name": "when"
		},
		{
		    "type": "bool",
		    "name": "no-recurse"
		},
		{
		    "type": "bool",
		    "name": "no-hooks"
		},
		{
		    "type": "bool",
		    "name": "detailed"
		},
		{
		    "type": "bool",
		    "name": "action"
		}
	    ]
	},
	{
	    "name": "Gi-Property",
	    "extends": "GiItem",
	    "implements": [
		"GiAttributed"
	    ],
	    "fields": [
		{
		    "type": "bool",
		    "name": "writable"
		},
		{
		    "type": "bool",
		    "name": "readable"
		},
		{
		    "type": "bool",
		    "name": "construct"
		},
		{
		    "type": "bool",
		    "name": "construct-only"
		},
		{
		    "type": "GiTransfer",
		    "name": "transfer",
		    "tag": "transfer-ownership"
		},
		{
		    "type": "String",
		    "name": "getter"
		},
		{
		    "type": "String",
		    "name": "setter"
		},
		{
		    "type": "GiType",
		    "name": "Object",
		    "classes": {
			"type": "GiType",
			"array": "GiArray"
		    }
		}
	    ]
	},
	{
	    "name": "Gi-Enumeration",
	    "extends": "GiItem",
	    "implements": [
		"GiObjective",
		"GiTyped"
	    ],
	    "fields": [
		{
		    "type": "String",
		    "name": "glib-error-domain",
		    "tag": "glib:error-domain"
		},
		{
		    "type": "Array",
		    "element": "GiMember",
		    "name": "members",
		    "tag": "member"
		}
	    ]
	},
	{
	    "name": "Gi-Bitfield",
	    "extends": "GiItem",
	    "implements": [
		"GiObjective",
		"GiTyped"
	    ],
	    "fields": [
		{
		    "type": "Array",
		    "element": "GiMember",
		    "name": "members",
		    "tag": "member"
		}
	    ]
	},
	{
	    "name": "Gi-Member",
	    "implements": [
		"GiDocumentable",
		"GiNamed"
	    ],
	    "fields": [
		{
		    "type": "uint32",
		    "name": "value"
		},
		{
		    "type": "String",
		    "name": "c-identifier",
		    "tag": "c:identifier"
		},
		{
		    "type": "String",
		    "name": "glib-nick",
		    "tag": "glib:nick"
		},
		{
		    "type": "String",
		    "name": "glib-name",
		    "tag": "glib:name"
		}
	    ]
	},
	{
	    "name": "Gi-Field",
	    "extends": "GiItem",
	    "fields": [
		{
		    "type": "Object",
		    "name": "type",
		    "classes": {
			"type": "GiType",
			"array": "GiArray",
			"callback": "GiCallback"
		    }
		},
		{
		    "type": "bool",
		    "name": "readable"
		},
		{
		    "type": "bool",
		    "name": "writable"
		},
		{
		    "type": "bool",
		    "name": "private"
		},
		{
		    "type": "uint32",
		    "name": "bits"
		}
	    ]
	},
	{
	    "name": "Gi-Function",
	    "extends": "GiCallable",
	    "fields": [
		{
		    "type": "String",
		    "name": "c-identifier",
		    "tag": "c:identifier"
		},
		{
		    "type": "String",
		    "name": "moved-to"
		},
		{
		    "type": "String",
		    "name": "shadowed-by"
		},
		{
		    "type": "String",
		    "name": "shadows"
		},
		{
		    "type": "Array",
		    "element": "GiAttribute",
		    "name": "attributes",
		    "tag": "attribute"
		}
	    ]
	},
	{
	    "name": "Gi-Attribute",
	    "fields": [
		{
		    "type": "String",
		    "name": "name"
		},
		{
		    "type": "String",
		    "name": "value"
		}
	    ]
	},
	{
	    "name": "Gi-Method",
	    "extends": "GiFunction",
	    "fields": [
		{
		    "type": "GiParameter",
		    "name": "instance-parameter"
		},
		{
		    "type": "String",
		    "name": "get-property",
		    "tag": "glib:get-property"
		},
		{
		    "type": "String",
		    "name": "set-property",
		    "tag": "glib:set-property"
		}
	    ]
	},
	{
	    "name": "Gi-Virtual-Method",
	    "extends": "GiMethod",
	    "fields": [
		{
		    "type": "String",
		    "name": "invoker"
		}
	    ]
	},
	{
	    "name": "Gi-Constructor",
	    "extends": "GiFunction"
	},
	{
	    "name": "Gi-Return-Value",
	    "implements": [
		"GiDocumentable",
		"GiSkipped",
		"GiAttributed"
	    ],
	    "fields": [
		{
		    "type": "bool",
		    "name": "nullable"
		},
		{
		    "type": "GiTransfer",
		    "name": "transfer",
		    "tag": "transfer-ownership"
		},
		{
		    "type": "Object",
		    "name": "type",
		    "classes": {
			"array": "GiArray",
			"type": "GiType"
		    }
		}
	    ]
	},
	{
	    "name": "Gi-Array",
	    "implements": "GiNamed",
	    "fields": [
		{
		    "type": "String",
		    "name": "c-type",
		    "tag": "c:type"
		},
		{
		    "type": "uint32",
		    "name": "length"
		},
		{
		    "type": "uint32",
		    "name": "fixed-size"
		},
		{
		    "type": "bool",
		    "name": "zero-terminated"
		},
		{
		    "type": "GiType",
		    "name": "type"
		}
	    ]
	},
	{
	    "name": "Gi-Callback",
	    "extends": "GiCallable"
	},
	{
	    "name": "Gi-Varargs"
	},
	{
	    "name": "Gi-Package",
	    "implements": "GiNamed"
	},
	{
	    "name": "Gi-Include",
	    "implements": [
		"GiNamed",
		"GiVersioned"
	    ]
	},
	{
	    "name": "Gi-CInclude",
	    "implements": "GiNamed"
	},
	{
	    "name": "Gi-Prerequisite",
	    "implements": "GiNamed"
	}
    ]
}
